<?xml version="1.0" encoding="utf-8"?>
<svg xmlns="http://www.w3.org/2000/svg" viewBox="0 0 402.16 381.34">
    <g>
        <path fill="#c3461b" d="M98.54,202.72h0a82.63,82.63,0,0,0-10.42.37,113.07,113.07,0,0,0-1.88,18.6c0,49.1,31,90.78,74.4,107.18A80.12,80.12,0,0,0,171.09,307,90.49,90.49,0,0,1,112.2,204.89,73.22,73.22,0,0,0,98.54,202.72ZM231,307a80.38,80.38,0,0,0,10.46,21.88c43.4-16.39,74.4-58.05,74.4-107.18a114.17,114.17,0,0,0-1.88-18.6,81.52,81.52,0,0,0-10.35-.37h0a72.82,72.82,0,0,0-13.71,2.19,91.57,91.57,0,0,1,1.55,16.76A90.44,90.44,0,0,1,231,307ZM128.62,133.34a80.17,80.17,0,0,0,13.52,19.75,90.4,90.4,0,0,1,117.83,0,79.8,79.8,0,0,0,13.62-19.7c-19.82-16.33-44.85-26.55-72.52-26.55h0C173.45,106.87,148.43,117.07,128.62,133.34ZM49.65,206a88.36,88.36,0,0,1,64.55-9.54,90.33,90.33,0,0,1,21.62-37.41,89,89,0,0,1,48.3-148.2v-.45h0C121.73,18.72,73.5,72,73.5,136.64c0,4,.31,7.89.67,11.77-3.55,1.63-7.12,3.33-10.57,5.33-56,32.32-78,100.67-54,158.85l.37-.22A89.23,89.23,0,0,1,49.65,206Zm288.9-52.28c-3.47-2-7-3.7-10.58-5.33.37-3.89.68-7.79.68-11.77,0-64.63-48.19-117.9-110.55-126.23h0v.45a89,89,0,0,1,48.21,148.27,90.42,90.42,0,0,1,21.58,37.39A89,89,0,0,1,392.1,312.44l.45.22C416.54,254.48,394.53,186.06,338.55,153.74Zm-75.38,207a88.38,88.38,0,0,1-40.57-51.27,90.78,90.78,0,0,1-43.1,0A89,89,0,0,1,27,341.77l-.45.22c38.39,49.87,108.63,65,164.62,32.7,3.47-2,6.7-4.25,9.9-6.52,3.21,2.27,6.43,4.52,9.9,6.52,56,32.32,126.15,17.22,164.55-32.63l-.37-.22A89.3,89.3,0,0,1,263.17,360.74Z" transform="translate(0 -10.41)"/>
    </g>
    <g>
        <path fill="#c3461b" d="M148.91,193.94a17.4,17.4,0,1,1,17.4,17.4,17.4,17.4,0,0,1-17.4-17.4" transform="translate(0 -10.41)"/>
        <path fill="#c3461b" d="M218.5,193.94a17.4,17.4,0,1,1,17.4,17.4,17.4,17.4,0,0,1-17.4-17.4" transform="translate(0 -10.41)"/>
        <path fill="#c3461b" d="M240.25,246.13c0,19.22-17.53,34.79-39.15,34.79S162,265.35,162,246.13" transform="translate(0 -10.41)"/>
    </g>
</svg>